16_BIT_UP_DOWN_COUNTER/HRISHIK_project-20250618T115006Z-1-001/HRISHIK_project/RTL2GDSII/DC/WORK/up_down_counter_16bit.vcd
$date
	Mon Jun  2 10:45:06 2025
$end

$version
	Synopsys VCS version W-2024.09_Full64
$end

$timescale
	1ns
$end

$comment Csum: 1 2977addcde7d2133 $end


$scope module testbench $end
$var reg 1 ! Clock $end
$var reg 1 " Reset $end
$var reg 1 # Enable $end
$var reg 1 $ Up_Down $end
$var wire 16 % Count [15:0] $end

$scope module dut $end
$var wire 1 & Clock $end
$var wire 1 ' Reset $end
$var wire 1 ( Enable $end
$var wire 1 ) Up_Down $end
$var reg 16 * Count [15:0] $end
$var reg 16 + count_next [15:0] $end
$upscope $end

$upscope $end

$enddefinitions $end

#0
$dumpvars
0!
0#
1"
0$
0(
1'
0)
bxxxxxxxxxxxxxxxx %
bxxxxxxxxxxxxxxxx +
bxxxxxxxxxxxxxxxx *
0&
$end
#5
1!
1&
b0000000000000000 *
b0000000000000000 %
b1111111111111111 +
#10
0"
0'
1#
1(
1$
1)
0!
0&
b0000000000000001 +
#15
1!
1&
b0000000000000001 *
b0000000000000001 %
b0000000000000010 +
#20
0!
0&
#25
1!
1&
b0000000000000010 *
b0000000000000010 %
b0000000000000011 +
#30
0!
0&
#35
1!
1&
b0000000000000011 *
b0000000000000011 %
b0000000000000100 +
#40
0!
0&
#45
1!
1&
b0000000000000100 *
b0000000000000100 %
b0000000000000101 +
#50
0!
0&
#55
1!
1&
b0000000000000101 *
b0000000000000101 %
b0000000000000110 +
#60
0!
0&
#65
1!
1&
b0000000000000110 *
b0000000000000110 %
b0000000000000111 +
#70
0!
0&
#75
1!
1&
b0000000000000111 *
b0000000000000111 %
b0000000000001000 +
#80
0!
0&
#85
1!
1&
b0000000000001000 *
b0000000000001000 %
b0000000000001001 +
#90
0$
0)
0!
0&
b0000000000000111 +
#95
1!
1&
b0000000000000111 *
b0000000000000111 %
b0000000000000110 +
#100
0!
0&
#105
1!
1&
b0000000000000110 *
b0000000000000110 %
b0000000000000101 +
#110
0!
0&
#115
1!
1&
b0000000000000101 *
b0000000000000101 %
b0000000000000100 +
#120
0!
0&
#125
1!
1&
b0000000000000100 *
b0000000000000100 %
b0000000000000011 +
#130
0!
0&
#135
1!
1&
b0000000000000011 *
b0000000000000011 %
b0000000000000010 +
#140
0!
0&
#145
1!
1&
b0000000000000010 *
b0000000000000010 %
b0000000000000001 +
#150
0!
0&
#155
1!
1&
b0000000000000001 *
b0000000000000001 %
b0000000000000000 +
#160
0!
0&
#165
1!
1&
b0000000000000000 *
b0000000000000000 %
b1111111111111111 +
#170
0#
0(
0!
0&
